{
  "formatVersion": 1,
  "database": {
    "version": 1,
    "identityHash": "b5e8a871df795ffb225d085815b7f57a",
    "entities": [
      {
        "tableName": "encrypted_file",
        "createSql": "CREATE TABLE IF NOT EXISTS `${TABLE_NAME}` (`id` INTEGER PRIMARY KEY AUTOINCREMENT NOT NULL, `name` TEXT NOT NULL, `url` TEXT, `completed` INTEGER NOT NULL, `local_file_path` TEXT, `decrypted_file_path` TEXT, `org_file_path` TEXT)",
        "fields": [
          {
            "fieldPath": "id",
            "columnName": "id",
            "affinity": "INTEGER",
            "notNull": true
          },
          {
            "fieldPath": "name",
            "columnName": "name",
            "affinity": "TEXT",
            "notNull": true
          },
          {
            "fieldPath": "downloadUrl",
            "columnName": "url",
            "affinity": "TEXT",
            "notNull": false
          },
          {
            "fieldPath": "completed",
            "columnName": "completed",
            "affinity": "INTEGER",
            "notNull": true
          },
          {
            "fieldPath": "encryptedFilePath",
            "columnName": "local_file_path",
            "affinity": "TEXT",
            "notNull": false
          },
          {
            "fieldPath": "decryptedFilePath",
            "columnName": "decrypted_file_path",
            "affinity": "TEXT",
            "notNull": false
          },
          {
            "fieldPath": "orgFilePath",
            "columnName": "org_file_path",
            "affinity": "TEXT",
            "notNull": false
          }
        ],
        "primaryKey": {
          "columnNames": [
            "id"
          ],
          "autoGenerate": true
        },
        "indices": [],
        "foreignKeys": []
      },
      {
        "tableName": "users",
        "createSql": "CREATE TABLE IF NOT EXISTS `${TABLE_NAME}` (`id` INTEGER NOT NULL, `username` TEXT NOT NULL, `password` TEXT NOT NULL, `token` TEXT NOT NULL, PRIMARY KEY(`id`))",
        "fields": [
          {
            "fieldPath": "id",
            "columnName": "id",
            "affinity": "INTEGER",
            "notNull": true
          },
          {
            "fieldPath": "username",
            "columnName": "username",
            "affinity": "TEXT",
            "notNull": true
          },
          {
            "fieldPath": "password",
            "columnName": "password",
            "affinity": "TEXT",
            "notNull": true
          },
          {
            "fieldPath": "token",
            "columnName": "token",
            "affinity": "TEXT",
            "notNull": true
          }
        ],
        "primaryKey": {
          "columnNames": [
            "id"
          ],
          "autoGenerate": false
        },
        "indices": [],
        "foreignKeys": []
      }
    ],
    "setupQueries": [
      "CREATE TABLE IF NOT EXISTS room_master_table (id INTEGER PRIMARY KEY,identity_hash TEXT)",
      "INSERT OR REPLACE INTO room_master_table (id,identity_hash) VALUES(42, \"b5e8a871df795ffb225d085815b7f57a\")"
    ]
  }
}